{
    "__comment": "JimStoneCraft - 2022",
    "ambientocclusion": false,
    "textures": {
        "particle": "blocks/custom_rail_golden_particle",
        "rails": "blocks/custom_rail_rails",
        "sleepers": "blocks/custom_rail_sleepers",
        "powered": "blocks/custom_rail_golden_powered"
    },
    "elements": [
        {   "from": [ 2, 1, 0 ],
            "to": [ 4.5, 1.5, 16 ],
            "faces": {
                "down":  { "uv": [ 6.5, 0, 9,   16 ], "texture": "#rails" },
                "up":    { "uv": [ 2,   0, 4.5, 16 ], "texture": "#rails" },
                "north": { "uv": [ 0.5, 0, 1,    2.5 ], "texture": "#rails", "rotation": 90, "cullface": "north" },
                "south": { "uv": [ 0.5, 0, 1,    2.5 ], "texture": "#rails", "rotation": 90, "cullface": "south" }
            },
            "__comment": "Left Rail"
        },
        {   "from": [ 2.5, 1.5, 0 ],
            "to": [ 4, 2, 16 ],
            "faces": {
                "up":    { "uv": [ 2.5, 0, 4,   16 ], "texture": "#rails" },
                "north": { "uv": [ 0,   0, 0.5,  1.5 ], "texture": "#rails", "rotation": 90, "cullface": "north" },
                "south": { "uv": [ 0,   0, 0.5,  1.5 ], "texture": "#rails", "rotation": 90, "cullface": "south" }
            },
            "__comment": "Left Rail Top"
        },
        {   "from": [ 11.5, 1, 0 ],
            "to": [ 14, 1.5, 16 ],
            "faces": {
                "down":  { "uv": [  6.5,  0,  9, 16 ], "texture": "#rails" },
                "up":    { "uv": [ 11.5,  0, 14, 16 ], "texture": "#rails" },
                "north": { "uv": [  0.5,  0,  1,  2.5 ], "texture": "#rails", "rotation": 90, "cullface": "north" },
                "south": { "uv": [  0.5,  0,  1,  2.5 ], "texture": "#rails", "rotation": 90, "cullface": "south" }
            },
            "__comment": "Right Rail"
        },
        {   "from": [ 12, 1.5, 0 ],
            "to": [ 13.5, 2, 16 ],
            "faces": {
                "up":    { "uv": [ 12, 0, 13.5, 16 ], "texture": "#rails" },
                "north": { "uv": [  0, 0,  0.5,  1.5 ], "texture": "#rails", "rotation": 90, "cullface": "north" },
                "south": { "uv": [  0, 0,  0.5,  1.5 ], "texture": "#rails", "rotation": 90, "cullface": "south" }
            },
            "__comment": "Right Rail Top"
        },
        {   "from": [  1, 0, 0.5 ],
            "to":   [ 15, 1, 3 ],
            "faces": {
                "down":  { "uv": [  1, 0.5, 15, 3 ], "texture": "#sleepers", "cullface": "down" },
                "up":    { "uv": [  1, 0.5, 15, 3 ], "texture": "#sleepers" },
                "north": { "uv": [  1, 3,   15, 4  ], "texture": "#sleepers" },
                "south": { "uv": [  1, 0,   15, 1 ], "texture": "#sleepers" },
                "west":  { "uv": [  1, 0.5,  2, 3 ], "texture": "#sleepers", "rotation": 270 },
                "east":  { "uv": [ 14, 0.5, 15, 3 ], "texture": "#sleepers", "rotation": 90 }
            },
            "__comment": "Sleeper 1"
        },
        {   "from": [ 0.5, 0, 1 ],
            "to":   [ 1, 1, 2.5 ],
            "faces": {
                "down":  { "uv": [ 0.5, 1, 1,   2.5 ], "texture": "#sleepers", "cullface": "down" },
                "up":    { "uv": [ 0.5, 1, 1,   2.5 ], "texture": "#sleepers" },
                "north": { "uv": [ 0.5, 1, 1,   2 ], "texture": "#sleepers" },
                "south": { "uv": [ 0.5, 1, 1,   2 ], "texture": "#sleepers" },
                "west":  { "uv": [ 0.5, 1, 1.5, 2.5 ], "texture": "#sleepers", "rotation": 270 }
            },
            "__comment": "Sleeper Chunks 1-1"
        },
        {   "from": [ 15, 0, 1 ],
            "to":   [ 15.5, 1, 2.5 ],
            "faces": {
                "down":  { "uv": [ 15,   1, 15.5, 2.5 ], "texture": "#sleepers", "cullface": "down" },
                "up":    { "uv": [ 15,   1, 15.5, 2.5 ], "texture": "#sleepers" },
                "north": { "uv": [ 15,   1, 15.2, 2 ], "texture": "#sleepers" },
                "south": { "uv": [ 15,   1, 15.5, 2 ], "texture": "#sleepers" },
                "east":  { "uv": [ 14.5, 1, 15.5, 2.5 ], "texture": "#sleepers", "rotation": 90 }
            },
            "__comment": "Sleeper Chunks 1-2"
        },
        {   "from": [  1, 0, 4.5 ],
            "to":   [ 15, 1, 7 ],
            "faces": {
                "down":  { "uv": [  1, 4.5, 15, 7 ], "texture": "#sleepers", "cullface": "down" },
                "up":    { "uv": [  1, 4.5, 15, 7 ], "texture": "#sleepers" },
                "north": { "uv": [  1, 7,   15, 8 ], "texture": "#sleepers" },
                "south": { "uv": [  1, 4,   15, 5 ], "texture": "#sleepers" },
                "west":  { "uv": [  1, 4.5,  2, 7 ], "texture": "#sleepers", "rotation": 270 },
                "east":  { "uv": [ 14, 4.5, 15, 7 ], "texture": "#sleepers", "rotation": 90 }
            },
            "__comment": "Sleeper 2"
        },
        {   "from": [ 0.5, 0, 5 ],
            "to":   [ 1, 1, 6.5 ],
            "faces": {
                "down":  { "uv": [ 0.5, 5, 1,   6.5 ], "texture": "#sleepers", "cullface": "down" },
                "up":    { "uv": [ 0.5, 5, 1,   6.5 ], "texture": "#sleepers" },
                "north": { "uv": [ 0.5, 5, 1,   6 ], "texture": "#sleepers" },
                "south": { "uv": [ 0.5, 5, 1,   6 ], "texture": "#sleepers" },
                "west":  { "uv": [ 0.5, 5, 1.5, 6.5 ], "texture": "#sleepers", "rotation": 270 }
            },
            "__comment": "Sleeper Chunks 2-1"
        },
        {   "from": [ 15, 0, 5 ],
            "to":   [ 15.5, 1, 6.5 ],
            "faces": {
                "down":  { "uv": [ 15,   5, 15.5, 6.5 ], "texture": "#sleepers", "cullface": "down" },
                "up":    { "uv": [ 15,   5, 15.5, 6.5 ], "texture": "#sleepers" },
                "north": { "uv": [ 15,   5, 15.5, 6 ], "texture": "#sleepers" },
                "south": { "uv": [ 15,   5, 15.5, 6 ], "texture": "#sleepers" },
                "east":  { "uv": [ 14.5, 5, 15.5, 6.5 ], "texture": "#sleepers", "rotation": 90 }
            },
            "__comment": "Sleeper Chunks 2-2"
        },
        {   "from": [  1, 0, 8.5 ],
            "to":   [ 15, 1, 11 ],
            "faces": {
                "down":  { "uv": [  1,  8.5, 15, 11 ], "texture": "#sleepers", "cullface": "down" },
                "up":    { "uv": [  1,  8.5, 15, 11 ], "texture": "#sleepers" },
                "north": { "uv": [  1, 11,   15, 12 ], "texture": "#sleepers" },
                "south": { "uv": [  1,  8,   15,  9 ], "texture": "#sleepers" },
                "west":  { "uv": [  1,  8.5,  2, 11 ], "texture": "#sleepers", "rotation": 270 },
                "east":  { "uv": [ 14,  8.5, 15, 11 ], "texture": "#sleepers", "rotation": 90 }
            },
            "__comment": "Sleeper 3"
        },
        {   "from": [ 0.5, 0, 9 ],
            "to":   [ 1, 1, 10.5 ],
            "faces": {
                "down":  { "uv": [ 0.5, 9, 1,   10.5 ], "texture": "#sleepers", "cullface": "down" },
                "up":    { "uv": [ 0.5, 9, 1,   10.5 ], "texture": "#sleepers" },
                "north": { "uv": [ 0.5, 9, 1,   10 ], "texture": "#sleepers" },
                "south": { "uv": [ 0.5, 9, 1,   10 ], "texture": "#sleepers" },
                "west":  { "uv": [ 0.5, 9, 1.5, 10.5 ], "texture": "#sleepers", "rotation": 270 }
            },
            "__comment": "Sleeper Chunks 3-1"
        },
        {   "from": [ 15, 0, 9 ],
            "to":   [ 15.5, 1, 10.5 ],
            "faces": {
                "down":  { "uv": [ 15,   9, 15.5, 10.5 ], "texture": "#sleepers", "cullface": "down" },
                "up":    { "uv": [ 15,   9, 15.5, 10.5 ], "texture": "#sleepers" },
                "north": { "uv": [ 15,   9, 15.5, 10 ], "texture": "#sleepers" },
                "south": { "uv": [ 15,   9, 15.5, 10 ], "texture": "#sleepers" },
                "east":  { "uv": [ 14.5, 9, 15.5, 10.5 ], "texture": "#sleepers", "rotation": 90 }
            },
            "__comment": "Sleeper Chunks 3-2"
        },
        {   "from": [  1, 0, 12.5 ],
            "to":   [ 15, 1, 15 ],
            "faces": {
                "down":  { "uv": [  1, 12.5, 15, 15 ], "texture": "#sleepers", "cullface": "down" },
                "up":    { "uv": [  1, 12.5, 15, 15 ], "texture": "#sleepers" },
                "north": { "uv": [  1, 15,   15, 16 ], "texture": "#sleepers" },
                "south": { "uv": [  1, 12,   15, 13 ], "texture": "#sleepers" },
                "west":  { "uv": [  1, 12.5,  2, 15 ], "texture": "#sleepers", "rotation": 270 },
                "east":  { "uv": [ 14, 12.5, 15, 15 ], "texture": "#sleepers", "rotation": 90 }
            },
            "__comment": "Sleeper 4"
        },
        {   "from": [ 0.5, 0, 13 ],
            "to":   [ 1, 1, 14.5 ],
            "faces": {
                "down":  { "uv": [ 0.5, 13, 1,   14.5 ], "texture": "#sleepers", "cullface": "down" },
                "up":    { "uv": [ 0.5, 13, 1,   14.5 ], "texture": "#sleepers" },
                "north": { "uv": [ 0.5, 13, 1,   14 ], "texture": "#sleepers" },
                "south": { "uv": [ 0.5, 13, 1,   14 ], "texture": "#sleepers" },
                "west":  { "uv": [ 0.5, 13, 1.5, 14.5 ], "texture": "#sleepers", "rotation": 270 }
            },
            "__comment": "Sleeper Chunks 4-1"
        },
        {   "from": [ 15, 0, 13 ],
            "to":   [ 15.5, 1, 14.5 ],
            "faces": {
                "down":  { "uv": [ 15,   13, 15.5, 14.5 ], "texture": "#sleepers", "cullface": "down" },
                "up":    { "uv": [ 15,   13, 15.5, 14.5 ], "texture": "#sleepers" },
                "north": { "uv": [ 15,   13, 15.5, 14 ], "texture": "#sleepers" },
                "south": { "uv": [ 15,   13, 15.5, 14 ], "texture": "#sleepers" },
                "east":  { "uv": [ 14.5, 13, 15.5, 14.5 ], "texture": "#sleepers", "rotation": 90 }
            },
            "__comment": "Sleeper Chunks 4-2"
        },
        {   "from": [ 1.5, 1.001, 0.001 ],
            "to":   [ 2.5, 2, 15.999 ],
            "faces": {
                "down":  { "uv": [ 1, 0, 2, 16 ], "texture": "#powered" },
                "up":    { "uv": [ 1, 0, 2, 16 ], "texture": "#powered" },
                "north": { "uv": [ 2, 0, 3,  1 ], "texture": "#powered", "cullface": "north" },
                "south": { "uv": [ 2, 0, 3,  1 ], "texture": "#powered", "cullface": "south" },
                "west":  { "uv": [ 0, 0, 1, 16 ], "texture": "#powered", "rotation": 270 }
            },
            "__comment": "powered Left 1"
        },
        {   "from": [ 4, 1.001, 0.001 ],
            "to":   [ 5, 2, 15.999 ],
            "faces": {
                "down":  { "uv": [ 3.5, 0, 4.5, 16 ], "texture": "#powered" },
                "up":    { "uv": [ 3.5, 0, 4.5, 16 ], "texture": "#powered" },
                "north": { "uv": [ 2,   0, 3,    1 ], "texture": "#powered", "cullface": "north" },
                "south": { "uv": [ 2,   0, 3,    1 ], "texture": "#powered", "cullface": "south" },
                "east":  { "uv": [ 0,   0, 1,   16 ], "texture": "#powered", "rotation": 270 }
            },
            "__comment": "powered Left 2"
        },
        {   "from": [ 2.5, 2, 5.5 ],
            "to":   [ 4, 2.01, 10 ],
            "faces": {
                "up":    { "uv": [ 2, 5.5, 3.5, 10 ], "texture": "#powered" }
            },
            "__comment": "powered Left Middle"
        },
        {   "from": [ 11, 1.001, 0.001 ],
            "to":   [ 12, 2, 15.999 ],
            "faces": {
                "down":  { "uv": [ 11.5, 0, 12.5, 16 ], "texture": "#powered" },
                "up":    { "uv": [ 11.5, 0, 12.5, 16 ], "texture": "#powered" },
                "north": { "uv": [  2,   0,  3,    1 ], "texture": "#powered", "cullface": "north" },
                "south": { "uv": [  2,   0,  3,    1 ], "texture": "#powered", "cullface": "south" },
                "west":  { "uv": [ 15,   0, 16,   16 ], "texture": "#powered", "rotation": 270 }
            },
            "__comment": "powered Right 1"
        },
        {   "from": [ 13.5, 1.001, 0.001 ],
            "to":   [ 14.5, 2, 15.999 ],
            "faces": {
                "down":  { "uv": [ 14, 0, 15, 16 ], "texture": "#powered" },
                "up":    { "uv": [ 14, 0, 15, 16 ], "texture": "#powered" },
                "north": { "uv": [  2, 0,  3,  1 ], "texture": "#powered", "cullface": "north" },
                "south": { "uv": [  2, 0,  3,  1 ], "texture": "#powered", "cullface": "south" },
                "east":  { "uv": [ 15, 0, 16, 16 ], "texture": "#powered", "rotation": 270 }
            },
            "__comment": "powered Right 2"
        },
        {   "from": [ 12, 2, 5.5 ],
            "to":   [ 13.5, 2.01, 10 ],
            "faces": {
                "up":    { "uv": [ 12.5, 5.5, 14, 10 ], "texture": "#powered" }
            },
            "__comment": "powered Right Middle"
        },
        {   "from": [ 5, 1, 6.5 ],
            "to":   [ 11, 2, 9 ],
            "faces": {
                "down":  { "uv": [  5, 6.5, 11, 9 ], "texture": "#powered" },
                "up":    { "uv": [  5, 6.5, 11, 9 ], "texture": "#powered" },
                "north": { "uv": [ 11, 6.5,  5, 7.5 ], "texture": "#powered" },
                "south": { "uv": [  5, 9,   11, 8 ], "texture": "#powered" }
            },
            "__comment": "powered Middle"
        },
        {   "from": [ 7, 1.01, 5 ],
            "to":   [ 9, 1.5, 10 ],
            "faces": {
                "down":  { "uv": [ 9,  10,   7,   5 ], "texture": "#powered" },
                "up":    { "uv": [ 7,   5,   9,  10 ], "texture": "#powered" },
                "north": { "uv": [ 9,   5.5, 7,   5 ], "texture": "#powered" },
                "south": { "uv": [ 7,   9.5, 9,  10 ], "texture": "#powered" },
                "west":  { "uv": [ 7,  10,   7.5, 5 ], "texture": "#powered", "rotation": 90 },
                "east":  { "uv": [ 8.5, 5,   9,  10 ], "texture": "#powered", "rotation": 90 }
            },
            "__comment": "powered Middle Bottom"
        }
    ]
}
