{
    "__comment": "JimStoneCraft - 2021",
    "ambientocclusion": false,
    "textures": {
        "particle": "blocks/flower_pot",
        "flowerpot": "blocks/flower_pot",
        "cactus": "blocks/flower_cactus_pot"
    },
    "elements": [
        {   "from": [ 5, 0, 5 ],
            "to": [ 11, 6, 11 ],
            "faces": {
                "down":  { "uv": [ 5,  5, 11, 11 ], "texture": "flowerpot", "cullface": "down" },
                "up":    { "uv": [ 5,  5, 11, 11 ], "texture": "flowerpot" },
                "north": { "uv": [ 5, 10, 11, 16 ], "texture": "flowerpot" },
                "south": { "uv": [ 5, 10, 11, 16 ], "texture": "flowerpot" },
                "west":  { "uv": [ 5, 10, 11, 16 ], "texture": "flowerpot" },
                "east":  { "uv": [ 5, 10, 11, 16 ], "texture": "flowerpot" }
            }
        },
        {   "from": [ 6, 4, 6 ],
            "to": [ 10, 16, 10 ],
            "faces": {
                "up":    { "uv": [ 0, 0,  4,  4 ], "texture": "cactus" },
                "north": { "uv": [ 6, 0, 10, 12 ], "texture": "cactus" },
                "south": { "uv": [ 6, 0, 10, 12 ], "texture": "cactus" },
                "west":  { "uv": [ 6, 0, 10, 12 ], "texture": "cactus" },
                "east":  { "uv": [ 6, 0, 10, 12 ], "texture": "cactus" }
            }
        }
    ]
}
