{
    "__comment": "JimStoneCraft - 2020",
    "parent": "block/half_slab",
    "textures": {
        "bottom": "blocks/petrified_oak_planks1",
        "top": "blocks/petrified_oak_planks1",
        "side": "blocks/petrified_oak_planks1"
    }
}
