{
    "__comment": "JimStoneCraft - 2020",
    "parent": "block/cube_bottom_top",
    "display": {
        "firstperson_righthand": {
            "rotation": [ 0, 135, 0 ],
            "translation": [ 0, 0, 0 ],
            "scale": [ 0.40, 0.40, 0.40 ]
        }
    },
    "textures": {
        "top": "blocks/pumpkin_top",
        "bottom": "blocks/pumpkin_bottom",
        "side": "blocks/pumpkin_side"
    }
}
