{
    "__comment": "JimStoneCraft - 2020",
    "parent": "block/cube_bottom_top",
    "textures": {
        "bottom": "blocks/red_sandstone_smooth_bottom2",
        "top": "blocks/red_sandstone_smooth_top2",
        "side": "blocks/red_sandstone_smooth2"
    }
}
