{
    "__comment": "JimStoneCraft - 2020",
    "parent": "block/cube_bottom_top",
    "textures": {
        "bottom": "blocks/sandstone_top1",
        "top": "blocks/sandstone_carved_top",
        "side": "blocks/sandstone_carved6"
    }
}

