{
    "__comment": "JimStoneCraft - 2020",
    "parent": "block/cube_bottom_top",
    "textures": {
        "bottom": "blocks/sandstone_smooth_bottom4",
        "top": "blocks/sandstone_smooth_top4",
        "side": "blocks/sandstone_smooth4"
    }
}
