{
	"credit": "Made by 0ptima, totally cool guy from FrostBurn",
	"ambientocclusion": false,
	"textures": {
		"0": "frostburn/radio",
		"particle": "frostburn/radio"
	},
	"elements": [
		{
			"from": [2, 0, 4.5],
			"to": [14, 7.2, 11.5],
			"shade": false,
			"rotation": {"angle": 22.5, "axis": "y", "origin": [8, 3.6, 8]},
			"faces": {
				"north": {"uv": [0, 6.125, 9.875, 13], "texture": "#0"},
				"east": {"uv": [9.875, 6.125, 16, 13], "texture": "#0"},
				"south": {"uv": [0, 6.125, 9.875, 13], "texture": "#0"},
				"west": {"uv": [9.875, 6.125, 16, 13], "texture": "#0"},
				"up": {"uv": [0, 0, 9.875, 6.125], "texture": "#0"}
			}
		}
	],
	"display": {
		"thirdperson_righthand": {
			"rotation": [-26, -60, 0],
			"translation": [0.5, 1.5, -3],
			"scale": [0.7, 0.7, 0.7]
		},
		"thirdperson_lefthand": {
			"rotation": [-22, -12, 0],
			"translation": [0.5, 1.5, -3],
			"scale": [0.7, 0.7, 0.7]
		},
		"firstperson_righthand": {
			"rotation": [-26, -61, 0],
			"translation": [0, 5, 0]
		},
		"firstperson_lefthand": {
			"rotation": [-26, -42, 0],
			"translation": [0, 5, 0]
		},
		"ground": {
			"translation": [0, 2.5, 0],
			"scale": [0.8, 0.8, 0.8]
		},
		"gui": {
			"rotation": [35, 18, 0],
			"translation": [0, 3, 0]
		},
		"head": {
			"translation": [0, 18, 0],
			"scale": [1.5, 1.5, 1.5]
		},
		"fixed": {
			"rotation": [0, -22.5, 0],
			"translation": [0, 0, 14],
			"scale": [2, 2, 2]
		}
	}
}