{
	"credit": "Made by 0ptima. Check FrostBurn Studio!",
	"textures": {
		"0": "blocks/log_oak",
		"particle": "blocks/log_oak"
	},
	"elements": [
		{
			"from": [6, 0, 6],
			"to": [10, 16, 10],
			"faces": {
				"north": {"uv": [6, 0, 10, 16], "texture": "#0"},
				"east": {"uv": [6, 0, 10, 16], "texture": "#0"},
				"south": {"uv": [6, 0, 10, 16], "texture": "#0"},
				"west": {"uv": [6, 0, 10, 16], "texture": "#0"},
				"up": {"uv": [6, 6, 10, 10], "texture": "#0", "cullface": "up"},
				"down": {"uv": [6, 6, 10, 10], "texture": "#0", "cullface": "down"}
			}
		},
		{
			"from": [6, 1, 8.5],
			"to": [17, 2, 9.5],
			"rotation": {"angle": 22.5, "axis": "z", "origin": [6, 2, 8.5]},
			"faces": {
				"north": {"uv": [11, 0, 12, 16], "rotation": 90, "texture": "#0"},
				"east": {"uv": [9, 9, 10, 10], "rotation": 180, "texture": "#0", "cullface": "up"},
				"south": {"uv": [4.5, 0, 5.5, 16], "rotation": 90, "texture": "#0"},
				"up": {"uv": [0, 6.5, 16, 7.5], "rotation": 180, "texture": "#0"},
				"down": {"uv": [0, 11.5, 16, 12.5], "texture": "#0"}
			}
		},
		{
			"from": [-4, 11, 7.5],
			"to": [7, 12, 8.5],
			"rotation": {"angle": -45, "axis": "z", "origin": [7, 12, 7.5]},
			"faces": {
				"north": {"uv": [11, 16, 12, 0], "rotation": 90, "texture": "#0"},
				"south": {"uv": [4.5, 16, 5.5, 0], "rotation": 90, "texture": "#0"},
				"west": {"uv": [10, 9, 9, 10], "rotation": 180, "texture": "#0", "cullface": "up"},
				"up": {"uv": [16, 6.5, 0, 7.5], "rotation": 180, "texture": "#0"},
				"down": {"uv": [16, 11.5, 0, 12.5], "texture": "#0"}
			}
		}
	]
}