{
	"credit": "Made by 0ptima. Check FrostBurn Studio!",
	"textures": {
		"wall": "##texturename##"
	},
	"elements": [
		{
			"from": [4, 0, 4],
			"to": [12, 16, 12],
			"faces": {
				"north": {"uv": [4, 0, 12, 16], "texture": "#wall"},
				"east": {"uv": [4, 0, 12, 16], "texture": "#wall"},
				"south": {"uv": [4, 0, 12, 16], "texture": "#wall"},
				"west": {"uv": [4, 0, 12, 16], "texture": "#wall"},
				"up": {"uv": [4, 4, 12, 12], "texture": "#wall", "cullface": "up"},
				"down": {"uv": [4, 4, 12, 12], "texture": "#wall", "cullface": "down"}
			}
		},
		{
			"from": [6.5, 4, 10],
			"to": [9.5, 7, 26],
			"rotation": {"angle": -22.5, "axis": "x", "origin": [8.5, 6, 18]},
			"faces": {
				"east": {"uv": [4, 0, 7.5, 16], "rotation": 270, "texture": "#wall"},
				"south": {"uv": [7, 6.5, 11, 10.5], "texture": "#wall"},
				"west": {"uv": [4, 0, 7.5, 16], "rotation": 90, "texture": "#wall"},
				"up": {"uv": [1.5, 0, 5, 16], "rotation": 180, "texture": "#wall"},
				"down": {"uv": [10.5, 0, 14, 16], "texture": "#wall"}
			}
		},
		{
			"from": [6.5, 7, 12],
			"to": [9.5, 23, 15],
			"rotation": {"angle": 22.5, "axis": "x", "origin": [8.5, 15, 13]},
			"faces": {
				"north": {"uv": [5, 16, 1.5, 0], "rotation": 180, "texture": "#wall"},
				"east": {"uv": [7.5, 16, 4, 0], "rotation": 180, "texture": "#wall"},
				"south": {"uv": [14, 16, 10.5, 0], "rotation": 180, "texture": "#wall"},
				"west": {"uv": [7.5, 16, 4, 0], "rotation": 180, "texture": "#wall"},
				"up": {"uv": [11, 10.5, 7, 6.5], "rotation": 180, "texture": "#wall"}
			}
		}
	]
}