{
	"credit": "Made by 0ptima. Check FrostBurn Studio!",
	"textures": {
		"wall": "blocks/log_spruce"
	},
	"elements": [
		{
			"from": [4, 0, 4],
			"to": [12, 16, 12],
			"faces": {
				"north": {"uv": [4, 0, 12, 16], "texture": "#wall"},
				"east": {"uv": [4, 0, 12, 16], "texture": "#wall"},
				"south": {"uv": [4, 0, 12, 16], "texture": "#wall"},
				"west": {"uv": [4, 0, 12, 16], "texture": "#wall"},
				"up": {"uv": [4, 4, 12, 12], "texture": "#wall", "cullface": "up"},
				"down": {"uv": [4, 4, 12, 12], "texture": "#wall", "cullface": "down"}
			}
		},
		{
			"from": [8.5, 13, 10],
			"to": [11.5, 16, 26],
			"rotation": {"angle": -22.5, "axis": "x", "origin": [10.5, 15, 18]},
			"faces": {
				"east": {"uv": [4, 0, 7.5, 16], "rotation": 270, "texture": "#wall"},
				"south": {"uv": [7, 6.5, 11, 10.5], "texture": "#wall"},
				"west": {"uv": [4, 0, 7.5, 16], "rotation": 90, "texture": "#wall"},
				"up": {"uv": [1.5, 0, 5, 16], "rotation": 180, "texture": "#wall"},
				"down": {"uv": [10.5, 0, 14, 16], "texture": "#wall"}
			}
		},
		{
			"from": [-8.5, 14, 7],
			"to": [7.5, 17, 10],
			"rotation": {"angle": -22.5, "axis": "z", "origin": [-0.5, 16, 9]},
			"faces": {
				"north": {"uv": [4, 0, 7.5, 16], "rotation": 90, "texture": "#wall"},
				"south": {"uv": [4, 0, 7.5, 16], "rotation": 270, "texture": "#wall"},
				"west": {"uv": [7, 6.5, 11, 10.5], "texture": "#wall"},
				"up": {"uv": [1.5, 0, 5, 16], "rotation": 270, "texture": "#wall"},
				"down": {"uv": [10.5, 0, 14, 16], "rotation": 270, "texture": "#wall"}
			}
		},
		{
			"from": [3.5, 9, 5],
			"to": [19.5, 12, 8],
			"rotation": {"angle": 22.5, "axis": "z", "origin": [11.5, 11, 7]},
			"faces": {
				"north": {"uv": [4, 16, 7.5, 0], "rotation": 90, "texture": "#wall"},
				"east": {"uv": [11, 6.5, 7, 10.5], "texture": "#wall"},
				"south": {"uv": [4, 16, 7.5, 0], "rotation": 270, "texture": "#wall"},
				"up": {"uv": [1.5, 16, 5, 0], "rotation": 270, "texture": "#wall"},
				"down": {"uv": [10.5, 16, 14, 0], "rotation": 270, "texture": "#wall"}
			}
		},
		{
			"from": [4.5, 6, 5],
			"to": [7.5, 9, 21],
			"rotation": {"angle": -45, "axis": "x", "origin": [6.5, 8, 13]},
			"faces": {
				"east": {"uv": [4, 0, 7.5, 16], "rotation": 270, "texture": "#wall"},
				"south": {"uv": [7, 6.5, 11, 10.5], "texture": "#wall"},
				"west": {"uv": [4, 0, 7.5, 16], "rotation": 90, "texture": "#wall"},
				"up": {"uv": [1.5, 0, 5, 16], "rotation": 180, "texture": "#wall"},
				"down": {"uv": [10.5, 0, 14, 16], "texture": "#wall"}
			}
		},
		{
			"from": [8.5, 3, 1],
			"to": [11.5, 19, 4],
			"rotation": {"angle": -22.5, "axis": "x", "origin": [10.5, 11, 3]},
			"faces": {
				"north": {"uv": [10.5, 16, 14, 0], "rotation": 180, "texture": "#wall"},
				"east": {"uv": [4, 16, 7.5, 0], "rotation": 180, "texture": "#wall"},
				"south": {"uv": [1.5, 16, 5, 0], "rotation": 180, "texture": "#wall"},
				"west": {"uv": [4, 16, 7.5, 0], "rotation": 180, "texture": "#wall"},
				"up": {"uv": [11, 6.5, 7, 10.5], "rotation": 180, "texture": "#wall"}
			}
		},
		{
			"from": [4.5, 10, -5],
			"to": [7.5, 13, 11],
			"rotation": {"angle": 22.5, "axis": "x", "origin": [6.5, 12, 3]},
			"faces": {
				"north": {"uv": [11, 6.5, 7, 10.5], "texture": "#wall"},
				"east": {"uv": [4, 16, 7.5, 0], "rotation": 270, "texture": "#wall"},
				"west": {"uv": [4, 16, 7.5, 0], "rotation": 90, "texture": "#wall"},
				"up": {"uv": [1.5, 16, 5, 0], "rotation": 180, "texture": "#wall"},
				"down": {"uv": [10.5, 16, 14, 0], "texture": "#wall"}
			}
		}
	]
}