{
	"credit": "Made by 0ptima. Check FrostBurn Studio!",
	"textures": {
		"wall": "blocks/log_spruce"
	},
	"elements": [
		{
			"from": [4, 0, 4],
			"to": [12, 16, 12],
			"faces": {
				"north": {"uv": [4, 0, 12, 16], "texture": "#wall"},
				"east": {"uv": [4, 0, 12, 16], "texture": "#wall"},
				"south": {"uv": [4, 0, 12, 16], "texture": "#wall"},
				"west": {"uv": [4, 0, 12, 16], "texture": "#wall"},
				"up": {"uv": [4, 4, 12, 12], "texture": "#wall", "cullface": "up"},
				"down": {"uv": [4, 4, 12, 12], "texture": "#wall", "cullface": "down"}
			}
		},
		{
			"from": [4.5, 13, 7],
			"to": [7.5, 16, 23],
			"rotation": {"angle": -22.5, "axis": "x", "origin": [6.5, 15, 15]},
			"faces": {
				"east": {"uv": [4, 0, 7.5, 16], "rotation": 270, "texture": "#wall"},
				"south": {"uv": [7, 6.5, 11, 10.5], "texture": "#wall"},
				"west": {"uv": [4, 0, 7.5, 16], "rotation": 90, "texture": "#wall"},
				"up": {"uv": [1.5, 0, 5, 16], "rotation": 180, "texture": "#wall"},
				"down": {"uv": [10.5, 0, 14, 16], "texture": "#wall"}
			}
		},
		{
			"from": [7.5, 5, 4],
			"to": [10.5, 8, 20],
			"rotation": {"angle": -45, "axis": "x", "origin": [9.5, 7, 12]},
			"faces": {
				"east": {"uv": [4, 0, 7.5, 16], "rotation": 270, "texture": "#wall"},
				"south": {"uv": [7, 6.5, 11, 10.5], "texture": "#wall"},
				"west": {"uv": [4, 0, 7.5, 16], "rotation": 90, "texture": "#wall"},
				"up": {"uv": [1.5, 0, 5, 16], "rotation": 180, "texture": "#wall"},
				"down": {"uv": [10.5, 0, 14, 16], "texture": "#wall"}
			}
		},
		{
			"from": [10.5, 0, 8],
			"to": [13.5, 16, 11],
			"rotation": {"angle": -45, "axis": "z", "origin": [12.5, 8, 9]},
			"faces": {
				"north": {"uv": [4, 16, 7.5, 0], "rotation": 180, "texture": "#wall"},
				"east": {"uv": [1.5, 16, 5, 0], "rotation": 180, "texture": "#wall"},
				"south": {"uv": [4, 16, 7.5, 0], "rotation": 180, "texture": "#wall"},
				"west": {"uv": [10.5, 16, 14, 0], "rotation": 180, "texture": "#wall"},
				"up": {"uv": [11, 6.5, 7, 10.5], "rotation": 90, "texture": "#wall"}
			}
		},
		{
			"from": [-6.5, 5, 5],
			"to": [9.5, 8, 8],
			"rotation": {"angle": -22.5, "axis": "z", "origin": [1.5, 6, 6]},
			"faces": {
				"north": {"uv": [7.5, 16, 4, 0], "rotation": 270, "texture": "#wall"},
				"south": {"uv": [7.5, 16, 4, 0], "rotation": 90, "texture": "#wall"},
				"west": {"uv": [11, 10.5, 7, 6.5], "texture": "#wall"},
				"up": {"uv": [14, 16, 10.5, 0], "rotation": 90, "texture": "#wall"},
				"down": {"uv": [5, 16, 1.5, 0], "rotation": 90, "texture": "#wall"}
			}
		}
	]
}