{
	"credit": "Made by 0ptima. Check FrostBurn Studio!",
	"textures": {
		"particle": "blocks/log_birch",
		"wall": "blocks/log_birch"
	},
	"elements": [
		{
			"from": [4, 0, 4],
			"to": [12, 16, 12],
			"faces": {
				"north": {"uv": [4, 0, 12, 16], "texture": "#wall"},
				"east": {"uv": [4, 0, 12, 16], "texture": "#wall"},
				"south": {"uv": [4, 0, 12, 16], "texture": "#wall"},
				"west": {"uv": [4, 0, 12, 16], "texture": "#wall"},
				"up": {"uv": [4, 4, 12, 12], "texture": "#wall", "cullface": "up"},
				"down": {"uv": [4, 4, 12, 12], "texture": "#wall", "cullface": "down"}
			}
		},
		{
			"from": [6.5, 3, 11],
			"to": [9.5, 19, 14],
			"rotation": {"angle": 45, "axis": "x", "origin": [8.5, 11, 12]},
			"faces": {
				"north": {"uv": [1.5, 0, 5, 16], "texture": "#wall"},
				"east": {"uv": [4, 0, 7.5, 16], "texture": "#wall"},
				"south": {"uv": [10.5, 0, 14, 16], "texture": "#wall"},
				"west": {"uv": [4, 0, 7.5, 16], "texture": "#wall"},
				"up": {"uv": [7, 6.5, 11, 10.5], "texture": "#wall"}
			}
		}
	]
}